<svg id="btn-fav" xmlns="http://www.w3.org/2000/svg" width="40" height="40" viewBox="0 0 40 40">
  <defs>
    <style>
      .cls-1 {
        fill: #fff;
        stroke: #ffd62c;
      }

      .cls-2 {
        fill: #ffd62c;
      }

      .cls-3 {
        stroke: none;
      }

      .cls-4 {
        fill: none;
      }
    </style>
  </defs>
  <g id="Rectangle_166" data-name="Rectangle 166" class="cls-1">
    <rect class="cls-3" width="40" height="40" rx="10"/>
    <rect class="cls-4" x="0.5" y="0.5" width="39" height="39" rx="9.5"/>
  </g>
  <path id="star" class="cls-2" d="M19.947,7.738a1.062,1.062,0,0,0-.914-.73L13.26,6.484,10.978,1.142a1.063,1.063,0,0,0-1.956,0L6.741,6.484.966,7.008a1.064,1.064,0,0,0-.6,1.86l4.364,3.827L3.44,18.362a1.063,1.063,0,0,0,1.582,1.149L10,16.535l4.977,2.977a1.064,1.064,0,0,0,1.583-1.149l-1.287-5.668,4.364-3.827A1.064,1.064,0,0,0,19.947,7.738ZM10.1,16.477" transform="translate(10 9.504)"/>
</svg>
