<svg xmlns="http://www.w3.org/2000/svg" width="30" height="30" viewBox="0 0 30 30">
  <g id="그룹_38" data-name="그룹 38" transform="translate(-2612 -1223)">
    <path id="합치기_2" data-name="합치기 2" d="M12.313,15.3,7.4,9.195,2.487,15.3H0L6.157,7.65,0,0H2.487L7.4,6.105,12.313,0H14.8L8.643,7.65,14.8,15.3Z" transform="translate(2619 1230)" fill="#707070"/>
    <rect id="Rectangle_1482" data-name="Rectangle 1482" width="30" height="30" transform="translate(2612 1223)" fill="none"/>
  </g>
</svg>
