<svg id="icon-menu-mobile-2" xmlns="http://www.w3.org/2000/svg" width="16" height="16" viewBox="0 0 16 16">
  <defs>
    <style>
      .cls-1 {
        fill: #00a2e9;
      }

      .cls-2 {
        fill: none;
      }
    </style>
  </defs>
  <g id="_028-body" data-name="028-body" transform="translate(3)">
    <path id="Path_3546" data-name="Path 3546" class="cls-1" d="M106.242,9.725a9.282,9.282,0,0,1-.309-6.781c.059-.173.113-.343.161-.506A2.711,2.711,0,0,0,106.94.469a.469.469,0,0,0-.937,0,1.781,1.781,0,1,1-3.562,0,.469.469,0,0,0-.937,0,1.781,1.781,0,0,1-3.562,0,.469.469,0,1,0-.937,0,2.711,2.711,0,0,0,.845,1.968c.048.162.1.331.161.506a9.36,9.36,0,0,1-.455,7.094c-.043.083-.106.232-.12.27-.815,2.082.3,5.242.346,5.382a.469.469,0,0,0,.883-.315,9.288,9.288,0,0,1-.457-4.42,4.012,4.012,0,0,1,3.3,1.664v2.914a.469.469,0,0,0,.938,0V12.618a4.012,4.012,0,0,1,3.3-1.664,9.287,9.287,0,0,1-.457,4.42.469.469,0,1,0,.883.316c.05-.139,1.159-3.295.348-5.376-.045-.131-.152-.327-.268-.588Zm-4.271-7.731A2.718,2.718,0,0,0,104.9,3.1a10.231,10.231,0,0,0-.1,5.323,11.427,11.427,0,0,1-5.666,0,10.275,10.275,0,0,0-.1-5.323A2.718,2.718,0,0,0,101.971,1.993Zm0,9.651a4.971,4.971,0,0,0-3.389-1.6q.158-.358.287-.725a12.23,12.23,0,0,0,6.2,0q.129.367.286.725a4.971,4.971,0,0,0-3.389,1.6Z" transform="translate(-97.002)"/>
    <path id="Path_3547" data-name="Path 3547" class="cls-1" d="M241.489,233.934a.469.469,0,1,0-.409-.763A.469.469,0,0,0,241.489,233.934Z" transform="translate(-236.474 -225.718)"/>
  </g>
  <rect id="Rectangle_1568" data-name="Rectangle 1568" class="cls-2" width="16" height="16"/>
</svg>
