<svg id="icon-menu-mobile-5" xmlns="http://www.w3.org/2000/svg" width="16" height="16" viewBox="0 0 16 16">
  <defs>
    <style>
      .cls-1 {
        fill: #00a2e9;
      }

      .cls-2 {
        fill: none;
      }
    </style>
  </defs>
  <g id="_043-headband" data-name="043-headband" transform="translate(1)">
    <path id="Path_3582" data-name="Path 3582" class="cls-1" d="M39.084,15.077l-3.753-.968L34.9,12.8A4.138,4.138,0,0,0,36.35,9.969l.06-.751h.182a1.594,1.594,0,0,0,.073-3.186l.02-.246c0-.029,0-1.791,0-1.794A4.528,4.528,0,0,0,36.1,2a4.136,4.136,0,0,0-3.887-2A4.136,4.136,0,0,0,28.33,2a4.526,4.526,0,0,0-.581,1.992s0,1.761,0,1.794l.02.246a1.594,1.594,0,0,0,.073,3.186h.182l.06.751A4.141,4.141,0,0,0,29.539,12.8L29.1,14.11l-3.753.968a.469.469,0,1,0,.234.908l3.859-.995,2.613.95a.469.469,0,0,0,.32,0l2.613-.95,3.859.995a.469.469,0,1,0,.234-.908ZM28.686,4.469h7.062v.812H28.686Zm7.906,2.5a.656.656,0,0,1,0,1.312h-.107C36.6,6.906,36.589,6.969,36.592,6.969Zm-7.449-4.5A3.256,3.256,0,0,1,32.217.937a3.169,3.169,0,0,1,3.471,2.594H32.255a1.808,1.808,0,0,1-.583-.895.469.469,0,0,0-.91.227,2.447,2.447,0,0,0,.279.668H28.749a3.606,3.606,0,0,1,.394-1.064Zm-1.3,5.814a.656.656,0,0,1,0-1.312s0-.066.107,1.312Zm1.177,1.613-.294-3.676H35.71l-.294,3.676a3.209,3.209,0,0,1-6.4,0ZM32.217,15l-2.161-.786.292-.876a4.134,4.134,0,0,0,3.738,0l.292.878Z" transform="translate(-24.999 0)"/>
    <path id="Path_3583" data-name="Path 3583" class="cls-1" d="M211.8,329.8l-.663-.663s.035-.031.021-.019a1.866,1.866,0,0,1-1.379,0,.469.469,0,0,0-.642.683A2.476,2.476,0,0,0,211.8,329.8Z" transform="translate(-203.252 -318.718)"/>
  </g>
  <rect id="Rectangle_1571" data-name="Rectangle 1571" class="cls-2" width="16" height="16"/>
</svg>
